%YAML 1.1
%TAG !u! tag:unity3d.com,2011:
--- !u!114 &11400000
MonoBehaviour:
  m_ObjectHideFlags: 0
  m_CorrespondingSourceObject: {fileID: 0}
  m_PrefabInstance: {fileID: 0}
  m_PrefabAsset: {fileID: 0}
  m_GameObject: {fileID: 0}
  m_Enabled: 1
  m_EditorHideFlags: 0
  m_Script: {fileID: 11500000, guid: 5052bba95e86c114ab162d2b78250c7c, type: 3}
  m_Name: PoisonPool
  m_EditorClassIdentifier: 
  m_element: {fileID: 11400000, guid: 9855bf838698d394b842bc4972ad34f6, type: 2}
  m_damage: 5
  m_cooldown: 10
  m_lifeTime: 10
  m_manaCost: 0
  m_damageType: 0
  m_range: 0
  m_projectileSpeed: 0
  m_description: 
  m_aoe: {fileID: 5968083224686859407, guid: 685952ce9ae6efc49a0ef675c8df88fa, type: 3}
  m_layerMask:
    serializedVersion: 2
    m_Bits: 256
  m_isFollowing: 1
