%YAML 1.1
%TAG !u! tag:unity3d.com,2011:
--- !u!114 &11400000
MonoBehaviour:
  m_ObjectHideFlags: 0
  m_CorrespondingSourceObject: {fileID: 0}
  m_PrefabInstance: {fileID: 0}
  m_PrefabAsset: {fileID: 0}
  m_GameObject: {fileID: 0}
  m_Enabled: 1
  m_EditorHideFlags: 0
  m_Script: {fileID: 11500000, guid: 8ccb117c077c75b4cb0d877f08cbf8be, type: 3}
  m_Name: Windpush
  m_EditorClassIdentifier: 
  m_element: {fileID: 11400000, guid: 017880c52337e704e956d47e90cef800, type: 2}
  m_damage: 0
  m_cooldown: 0
  m_manaCost: 0
  m_spellType: 1
  m_damageType: 0
  m_range: 0
  m_projectileSpeed: 0
  m_description: 
