{
    "name": "PlayerInputs",
    "maps": [
        {
            "name": "PlayerGround",
            "id": "a52a4acf-cb80-4d55-ae4b-4f2959334d17",
            "actions": [
                {
                    "name": "Walk",
                    "type": "Value",
                    "id": "3e0aa311-0662-4a15-9d92-498933cdadb3",
                    "expectedControlType": "Vector2",
                    "processors": "",
                    "interactions": ""
                },
                {
                    "name": "Jump",
                    "type": "Value",
                    "id": "5461a07a-ad71-4649-9994-a9a720c025df",
                    "expectedControlType": "Button",
                    "processors": "",
                    "interactions": ""
                },
                {
                    "name": "Attack",
                    "type": "Value",
                    "id": "24da104e-d2b2-45dc-a473-dc36ceb4d420",
                    "expectedControlType": "Button",
                    "processors": "",
                    "interactions": ""
                },
                {
                    "name": "Defend",
                    "type": "Value",
                    "id": "81da95fb-fbd1-4eee-80f0-a9068ea43d77",
                    "expectedControlType": "Button",
                    "processors": "",
                    "interactions": ""
                },
                {
                    "name": "Lock Target",
                    "type": "Button",
                    "id": "a22a44c8-5597-4ba7-8d27-5054ecaac994",
                    "expectedControlType": "Button",
                    "processors": "",
                    "interactions": "Press"
                },
                {
                    "name": "Interact",
                    "type": "Button",
                    "id": "6a7aef67-6e45-4ec6-a502-1bfb89091320",
                    "expectedControlType": "Button",
                    "processors": "",
                    "interactions": ""
                },
                {
                    "name": "Sprint",
                    "type": "Value",
                    "id": "f385d4ed-b7cc-4683-a8ef-5abf44e8666e",
                    "expectedControlType": "Button",
                    "processors": "",
                    "interactions": ""
                },
                {
                    "name": "RotateCamera",
                    "type": "Value",
                    "id": "3ea411d9-2323-49a8-b2bc-fd609c905427",
                    "expectedControlType": "Vector2",
                    "processors": "",
                    "interactions": ""
                },
                {
                    "name": "MenuToggle",
                    "type": "Button",
                    "id": "e3347b5f-04bb-4fd8-9838-21d53f4a0149",
                    "expectedControlType": "Button",
                    "processors": "",
                    "interactions": ""
                },
                {
                    "name": "CycleTarget",
                    "type": "Button",
                    "id": "e2db1079-5dbe-4a46-966c-eda6643c7f43",
                    "expectedControlType": "Button",
                    "processors": "",
                    "interactions": "Press"
                },
                {
                    "name": "FireSpell",
                    "type": "Button",
                    "id": "005bd164-815c-46af-a501-b05aa8bd212d",
                    "expectedControlType": "Button",
                    "processors": "",
                    "interactions": "Press"
                },
                {
                    "name": "WaterSpell",
                    "type": "Button",
                    "id": "9bc10e1b-cbb8-4dec-8917-1e1e832b16e0",
                    "expectedControlType": "Button",
                    "processors": "",
                    "interactions": "Press"
                },
                {
                    "name": "WindSpell",
                    "type": "Button",
                    "id": "a8e02199-0c62-48d7-95d3-0ab88b2e05a4",
                    "expectedControlType": "Button",
                    "processors": "",
                    "interactions": "Press"
                },
                {
                    "name": "PoisonSpell",
                    "type": "Button",
                    "id": "6abe0881-9d4e-4e31-a578-a5b622b838fb",
                    "expectedControlType": "Button",
                    "processors": "",
                    "interactions": "Press"
                },
                {
                    "name": "CastSpell",
                    "type": "Value",
                    "id": "d32a2eb1-2e45-4e91-9a73-988f2b345037",
                    "expectedControlType": "Button",
                    "processors": "",
                    "interactions": ""
                },
                {
                    "name": "GroundPound",
                    "type": "Button",
                    "id": "13265128-487e-4143-934b-9060400b2351",
                    "expectedControlType": "Button",
                    "processors": "",
                    "interactions": ""
                },
                {
                    "name": "LookForward",
                    "type": "Button",
                    "id": "e76eecd0-3316-4302-81eb-f6bdcbed39ab",
                    "expectedControlType": "Button",
                    "processors": "",
                    "interactions": ""
                }
            ],
            "bindings": [
                {
                    "name": "",
                    "id": "77fdb630-be5b-4042-a0a4-0738f0dce8cc",
                    "path": "<Keyboard>/space",
                    "interactions": "",
                    "processors": "",
                    "groups": "Keyboard & Mouse",
                    "action": "Jump",
                    "isComposite": false,
                    "isPartOfComposite": false
                },
                {
                    "name": "",
                    "id": "6a11686b-50b1-4a76-9591-aee716fdeac5",
                    "path": "<Gamepad>/buttonSouth",
                    "interactions": "",
                    "processors": "Scale(factor=10)",
                    "groups": "GamePad",
                    "action": "Jump",
                    "isComposite": false,
                    "isPartOfComposite": false
                },
                {
                    "name": "Direction",
                    "id": "e970ca9c-9f8b-4d41-a613-8eb6005bd2f5",
                    "path": "2DVector",
                    "interactions": "",
                    "processors": "",
                    "groups": "",
                    "action": "Walk",
                    "isComposite": true,
                    "isPartOfComposite": false
                },
                {
                    "name": "up",
                    "id": "4b6330e0-5bc4-42f2-a025-40220b3b1c2a",
                    "path": "<Keyboard>/w",
                    "interactions": "",
                    "processors": "",
                    "groups": "Keyboard & Mouse",
                    "action": "Walk",
                    "isComposite": false,
                    "isPartOfComposite": true
                },
                {
                    "name": "down",
                    "id": "a5d031b2-c942-4d99-b229-0c281ba4b0fa",
                    "path": "<Keyboard>/s",
                    "interactions": "",
                    "processors": "",
                    "groups": "Keyboard & Mouse",
                    "action": "Walk",
                    "isComposite": false,
                    "isPartOfComposite": true
                },
                {
                    "name": "left",
                    "id": "7b6eb7e8-d77c-48b4-bd2d-8bb50933098d",
                    "path": "<Keyboard>/a",
                    "interactions": "",
                    "processors": "",
                    "groups": "Keyboard & Mouse",
                    "action": "Walk",
                    "isComposite": false,
                    "isPartOfComposite": true
                },
                {
                    "name": "right",
                    "id": "ad53f5f8-1021-46e4-b944-aac6b62a5e82",
                    "path": "<Keyboard>/d",
                    "interactions": "",
                    "processors": "",
                    "groups": "Keyboard & Mouse",
                    "action": "Walk",
                    "isComposite": false,
                    "isPartOfComposite": true
                },
                {
                    "name": "",
                    "id": "ded2eb0a-3847-49ee-987e-4d4dff0e4204",
                    "path": "<Gamepad>/leftStick",
                    "interactions": "",
                    "processors": "",
                    "groups": "GamePad",
                    "action": "Walk",
                    "isComposite": false,
                    "isPartOfComposite": false
                },
                {
                    "name": "",
                    "id": "14216d26-b42d-4bf1-b3d4-f22f2d6a4026",
                    "path": "<Mouse>/leftButton",
                    "interactions": "",
                    "processors": "",
                    "groups": "Keyboard & Mouse",
                    "action": "Attack",
                    "isComposite": false,
                    "isPartOfComposite": false
                },
                {
                    "name": "",
                    "id": "0014996c-c488-4b9f-ba82-636371c11b74",
                    "path": "<Gamepad>/buttonWest",
                    "interactions": "",
                    "processors": "",
                    "groups": "GamePad",
                    "action": "Attack",
                    "isComposite": false,
                    "isPartOfComposite": false
                },
                {
                    "name": "",
                    "id": "66381e12-5a99-4477-89fc-7694cd1ece94",
                    "path": "<Mouse>/rightButton",
                    "interactions": "",
                    "processors": "",
                    "groups": "Keyboard & Mouse",
                    "action": "Defend",
                    "isComposite": false,
                    "isPartOfComposite": false
                },
                {
                    "name": "",
                    "id": "67d53978-63da-4c63-b9a8-6d6690c43545",
                    "path": "<Gamepad>/rightTrigger",
                    "interactions": "",
                    "processors": "",
                    "groups": "GamePad",
                    "action": "Defend",
                    "isComposite": false,
                    "isPartOfComposite": false
                },
                {
                    "name": "",
                    "id": "0e598543-dbf0-4670-bffd-0029e07ba2d5",
                    "path": "<Keyboard>/tab",
                    "interactions": "",
                    "processors": "",
                    "groups": "Keyboard & Mouse",
                    "action": "Lock Target",
                    "isComposite": false,
                    "isPartOfComposite": false
                },
                {
                    "name": "",
                    "id": "26fee165-4448-456c-b6de-0fb2db73b97e",
                    "path": "<Gamepad>/leftTrigger",
                    "interactions": "",
                    "processors": "",
                    "groups": "GamePad",
                    "action": "Lock Target",
                    "isComposite": false,
                    "isPartOfComposite": false
                },
                {
                    "name": "",
                    "id": "a2b32e1a-b898-48c5-96a7-ea26f3ed8633",
                    "path": "<Mouse>/leftButton",
                    "interactions": "",
                    "processors": "",
                    "groups": "Keyboard & Mouse",
                    "action": "Interact",
                    "isComposite": false,
                    "isPartOfComposite": false
                },
                {
                    "name": "",
                    "id": "63cac206-07d3-400d-a1f6-43d685129084",
                    "path": "<Gamepad>/buttonWest",
                    "interactions": "",
                    "processors": "",
                    "groups": "GamePad",
                    "action": "Interact",
                    "isComposite": false,
                    "isPartOfComposite": false
                },
                {
                    "name": "",
                    "id": "ed848eae-b46c-44f0-8732-695ff440d8a3",
                    "path": "<Keyboard>/shift",
                    "interactions": "",
                    "processors": "",
                    "groups": "Keyboard & Mouse",
                    "action": "Sprint",
                    "isComposite": false,
                    "isPartOfComposite": false
                },
                {
                    "name": "",
                    "id": "fc0774e5-2a77-42ce-a300-270185fe1cbf",
                    "path": "<Gamepad>/leftStickPress",
                    "interactions": "",
                    "processors": "",
                    "groups": "GamePad",
                    "action": "Sprint",
                    "isComposite": false,
                    "isPartOfComposite": false
                },
                {
                    "name": "",
                    "id": "1270b6ba-34a4-4662-abe9-0e7d00a055df",
                    "path": "<Mouse>/delta",
                    "interactions": "",
                    "processors": "",
                    "groups": "Keyboard & Mouse",
                    "action": "RotateCamera",
                    "isComposite": false,
                    "isPartOfComposite": false
                },
                {
                    "name": "",
                    "id": "419217c0-9d60-4ea8-bc3d-887e6ba3a094",
                    "path": "<Gamepad>/rightStick",
                    "interactions": "",
                    "processors": "ScaleVector2(x=10,y=10)",
                    "groups": "GamePad",
                    "action": "RotateCamera",
                    "isComposite": false,
                    "isPartOfComposite": false
                },
                {
                    "name": "",
                    "id": "ac66cd40-29e6-4019-abad-f5ae0fbc8097",
                    "path": "<Keyboard>/escape",
                    "interactions": "",
                    "processors": "",
                    "groups": "Keyboard & Mouse",
                    "action": "MenuToggle",
                    "isComposite": false,
                    "isPartOfComposite": false
                },
                {
                    "name": "",
                    "id": "a1102c8d-7992-4214-b74f-a6c21615180e",
                    "path": "<Gamepad>/start",
                    "interactions": "",
                    "processors": "",
                    "groups": "GamePad",
                    "action": "MenuToggle",
                    "isComposite": false,
                    "isPartOfComposite": false
                },
                {
                    "name": "1D Axis",
                    "id": "c78f3b14-a394-4dcd-915d-0ccb090703d4",
                    "path": "1DAxis",
                    "interactions": "",
                    "processors": "",
                    "groups": "",
                    "action": "CycleTarget",
                    "isComposite": true,
                    "isPartOfComposite": false
                },
                {
                    "name": "negative",
                    "id": "4a36e358-5d40-4a04-9f6d-c79e3561e471",
                    "path": "<Keyboard>/q",
                    "interactions": "",
                    "processors": "",
                    "groups": "Keyboard & Mouse",
                    "action": "CycleTarget",
                    "isComposite": false,
                    "isPartOfComposite": true
                },
                {
                    "name": "positive",
                    "id": "4ed70862-4707-4cac-88f8-fa38a2fdb741",
                    "path": "<Keyboard>/e",
                    "interactions": "",
                    "processors": "",
                    "groups": "Keyboard & Mouse",
                    "action": "CycleTarget",
                    "isComposite": false,
                    "isPartOfComposite": true
                },
                {
                    "name": "1D Axis",
                    "id": "df99e758-7f71-4bc6-b5fd-1d73434eb110",
                    "path": "1DAxis",
                    "interactions": "",
                    "processors": "",
                    "groups": "",
                    "action": "CycleTarget",
                    "isComposite": true,
                    "isPartOfComposite": false
                },
                {
                    "name": "negative",
                    "id": "66d689cf-b5b8-4e9b-9f8f-fd4f18bc159d",
                    "path": "<Gamepad>/leftShoulder",
                    "interactions": "",
                    "processors": "",
                    "groups": "GamePad",
                    "action": "CycleTarget",
                    "isComposite": false,
                    "isPartOfComposite": true
                },
                {
                    "name": "positive",
                    "id": "cacce95e-4ca2-41fb-905b-cf9f7213915a",
                    "path": "<Gamepad>/rightShoulder",
                    "interactions": "",
                    "processors": "",
                    "groups": "GamePad",
                    "action": "CycleTarget",
                    "isComposite": false,
                    "isPartOfComposite": true
                },
                {
                    "name": "",
                    "id": "242719f9-98f9-4e17-acef-77f3e13f3e4c",
                    "path": "<Gamepad>/dpad/up",
                    "interactions": "Press",
                    "processors": "",
                    "groups": "GamePad",
                    "action": "FireSpell",
                    "isComposite": false,
                    "isPartOfComposite": false
                },
                {
                    "name": "",
                    "id": "888f401c-16be-4b21-9bbe-4f28c6750e79",
                    "path": "<Keyboard>/1",
                    "interactions": "Press",
                    "processors": "",
                    "groups": "Keyboard & Mouse",
                    "action": "FireSpell",
                    "isComposite": false,
                    "isPartOfComposite": false
                },
                {
                    "name": "",
                    "id": "ca898eb2-e9cb-407e-96cc-e3b0338df08d",
                    "path": "<Gamepad>/dpad/right",
                    "interactions": "Press",
                    "processors": "",
                    "groups": "GamePad",
                    "action": "WaterSpell",
                    "isComposite": false,
                    "isPartOfComposite": false
                },
                {
                    "name": "",
                    "id": "a9266b24-009b-4779-930c-1c55119902ca",
                    "path": "<Keyboard>/2",
                    "interactions": "Press",
                    "processors": "",
                    "groups": "Keyboard & Mouse",
                    "action": "WaterSpell",
                    "isComposite": false,
                    "isPartOfComposite": false
                },
                {
                    "name": "",
                    "id": "2bab6e87-d902-48c7-ae2f-df73ff02bdc0",
                    "path": "<Gamepad>/dpad/left",
                    "interactions": "Press",
                    "processors": "",
                    "groups": "GamePad",
                    "action": "WindSpell",
                    "isComposite": false,
                    "isPartOfComposite": false
                },
                {
                    "name": "",
                    "id": "83e015b8-3897-4bf9-a46e-716ee7bfa9ff",
                    "path": "<Keyboard>/3",
                    "interactions": "Press",
                    "processors": "",
                    "groups": "Keyboard & Mouse",
                    "action": "WindSpell",
                    "isComposite": false,
                    "isPartOfComposite": false
                },
                {
                    "name": "",
                    "id": "43ea1f83-2712-4f16-883a-6efaa6644e89",
                    "path": "<Gamepad>/dpad/down",
                    "interactions": "Press",
                    "processors": "",
                    "groups": "GamePad",
                    "action": "PoisonSpell",
                    "isComposite": false,
                    "isPartOfComposite": false
                },
                {
                    "name": "",
                    "id": "542a2823-121f-43f5-90cd-2eb7f6ea81cb",
                    "path": "<Keyboard>/4",
                    "interactions": "Press",
                    "processors": "",
                    "groups": "Keyboard & Mouse",
                    "action": "PoisonSpell",
                    "isComposite": false,
                    "isPartOfComposite": false
                },
                {
                    "name": "",
                    "id": "14e8fce5-cc09-4f82-bdab-b67b2b20ea42",
                    "path": "<Gamepad>/buttonNorth",
                    "interactions": "",
                    "processors": "",
                    "groups": "GamePad",
                    "action": "CastSpell",
                    "isComposite": false,
                    "isPartOfComposite": false
                },
                {
                    "name": "",
                    "id": "380b5256-e962-44a5-9abc-8e60c70d5723",
                    "path": "<Keyboard>/f",
                    "interactions": "",
                    "processors": "",
                    "groups": "Keyboard & Mouse",
                    "action": "CastSpell",
                    "isComposite": false,
                    "isPartOfComposite": false
                },
                {
                    "name": "",
                    "id": "e29f9e35-eea6-45a1-822e-d77fcd1b70ae",
                    "path": "<Keyboard>/leftCtrl",
                    "interactions": "",
                    "processors": "",
                    "groups": "Keyboard & Mouse",
                    "action": "GroundPound",
                    "isComposite": false,
                    "isPartOfComposite": false
                },
                {
                    "name": "",
                    "id": "e97bec0a-2ec0-4e7d-aff3-bfa0e75b34c8",
                    "path": "<Gamepad>/rightTrigger",
                    "interactions": "",
                    "processors": "",
                    "groups": "GamePad",
                    "action": "GroundPound",
                    "isComposite": false,
                    "isPartOfComposite": false
                },
                {
                    "name": "",
                    "id": "c22251af-6bad-4eee-adf8-9cd693484035",
                    "path": "<Mouse>/middleButton",
                    "interactions": "Press",
                    "processors": "",
                    "groups": "Keyboard & Mouse",
                    "action": "LookForward",
                    "isComposite": false,
                    "isPartOfComposite": false
                },
                {
                    "name": "",
                    "id": "3f9a98bc-fc81-404c-95aa-100ecd955503",
                    "path": "<Gamepad>/rightStickPress",
                    "interactions": "Press",
                    "processors": "",
                    "groups": "GamePad",
                    "action": "LookForward",
                    "isComposite": false,
                    "isPartOfComposite": false
                }
            ]
        },
        {
            "name": "UI",
            "id": "2c91d7f3-5047-44e7-8ee4-dd3ae41386d1",
            "actions": [
                {
                    "name": "MenuToggle",
                    "type": "Button",
                    "id": "727a02b1-fb2c-413b-8eaf-7be78396749c",
                    "expectedControlType": "Button",
                    "processors": "",
                    "interactions": ""
                },
                {
                    "name": "Point",
                    "type": "PassThrough",
                    "id": "6270bbf6-daa0-40a4-8298-13d4e778817d",
                    "expectedControlType": "Vector2",
                    "processors": "",
                    "interactions": ""
                },
                {
                    "name": "Navigate",
                    "type": "Value",
                    "id": "ff86c9b6-136b-4ca2-8a04-68e25619d748",
                    "expectedControlType": "Vector2",
                    "processors": "",
                    "interactions": ""
                },
                {
                    "name": "Click",
                    "type": "PassThrough",
                    "id": "5f828223-e25d-407b-907e-cecd3681d1cf",
                    "expectedControlType": "Button",
                    "processors": "",
                    "interactions": ""
                },
                {
                    "name": "ScrollWheel",
                    "type": "PassThrough",
                    "id": "0fc401ea-f653-487b-b681-90f0254cfe43",
                    "expectedControlType": "Vector2",
                    "processors": "",
                    "interactions": ""
                },
                {
                    "name": "MiddleClick",
                    "type": "PassThrough",
                    "id": "2281b4f8-ed64-40b2-a8f5-e72c5b23cf85",
                    "expectedControlType": "",
                    "processors": "",
                    "interactions": ""
                },
                {
                    "name": "RightClick",
                    "type": "PassThrough",
                    "id": "55492f94-6606-44c4-a1e2-37bb38b84d71",
                    "expectedControlType": "",
                    "processors": "",
                    "interactions": ""
                },
                {
                    "name": "Submit",
                    "type": "Button",
                    "id": "b99fcf46-3861-4de0-91be-b92010ec6d16",
                    "expectedControlType": "Button",
                    "processors": "",
                    "interactions": ""
                },
                {
                    "name": "Cancel",
                    "type": "Button",
                    "id": "e8da1b77-a0e3-4a6f-9f15-a066306dc13f",
                    "expectedControlType": "Button",
                    "processors": "",
                    "interactions": ""
                },
                {
                    "name": "TurnPage",
                    "type": "Value",
                    "id": "d802cb2c-b9aa-4bb2-8a1e-0b6c48a7e29b",
                    "expectedControlType": "Axis",
                    "processors": "",
                    "interactions": ""
                }
            ],
            "bindings": [
                {
                    "name": "",
                    "id": "ccc485ad-6529-43f2-8cf0-5a5be0859584",
                    "path": "<Keyboard>/escape",
                    "interactions": "",
                    "processors": "",
                    "groups": "Keyboard & Mouse",
                    "action": "MenuToggle",
                    "isComposite": false,
                    "isPartOfComposite": false
                },
                {
                    "name": "Gamepad",
                    "id": "57783d58-4589-4e5a-8105-4e69fedef06e",
                    "path": "2DVector",
                    "interactions": "",
                    "processors": "",
                    "groups": "",
                    "action": "Navigate",
                    "isComposite": true,
                    "isPartOfComposite": false
                },
                {
                    "name": "up",
                    "id": "409759d7-285e-447e-9225-7b2dfabaa4bd",
                    "path": "<Gamepad>/leftStick/up",
                    "interactions": "",
                    "processors": "",
                    "groups": "Gamepad;GamePad",
                    "action": "Navigate",
                    "isComposite": false,
                    "isPartOfComposite": true
                },
                {
                    "name": "up",
                    "id": "a927d0d3-1dad-4e1d-ba77-b1d800fa9fab",
                    "path": "<Gamepad>/rightStick/up",
                    "interactions": "",
                    "processors": "",
                    "groups": "Gamepad;GamePad",
                    "action": "Navigate",
                    "isComposite": false,
                    "isPartOfComposite": true
                },
                {
                    "name": "down",
                    "id": "ea106aec-63ec-4c23-a94c-b1a0c65db704",
                    "path": "<Gamepad>/leftStick/down",
                    "interactions": "",
                    "processors": "",
                    "groups": "Gamepad;GamePad",
                    "action": "Navigate",
                    "isComposite": false,
                    "isPartOfComposite": true
                },
                {
                    "name": "down",
                    "id": "e1aa265b-bd65-402c-9cfe-8d1b703293a4",
                    "path": "<Gamepad>/rightStick/down",
                    "interactions": "",
                    "processors": "",
                    "groups": "Gamepad;GamePad",
                    "action": "Navigate",
                    "isComposite": false,
                    "isPartOfComposite": true
                },
                {
                    "name": "left",
                    "id": "213ba5a7-9786-47da-9987-d914c6ab67f3",
                    "path": "<Gamepad>/leftStick/left",
                    "interactions": "",
                    "processors": "",
                    "groups": "Gamepad;GamePad",
                    "action": "Navigate",
                    "isComposite": false,
                    "isPartOfComposite": true
                },
                {
                    "name": "left",
                    "id": "1d5892f4-d375-4d4c-bff1-4af4ca329dbc",
                    "path": "<Gamepad>/rightStick/left",
                    "interactions": "",
                    "processors": "",
                    "groups": "Gamepad;GamePad",
                    "action": "Navigate",
                    "isComposite": false,
                    "isPartOfComposite": true
                },
                {
                    "name": "right",
                    "id": "b0936001-6c19-4525-86b4-c2edeb8a6761",
                    "path": "<Gamepad>/leftStick/right",
                    "interactions": "",
                    "processors": "",
                    "groups": "Gamepad;GamePad",
                    "action": "Navigate",
                    "isComposite": false,
                    "isPartOfComposite": true
                },
                {
                    "name": "right",
                    "id": "28409256-d706-4c2c-b41d-f6fa9bc51943",
                    "path": "<Gamepad>/rightStick/right",
                    "interactions": "",
                    "processors": "",
                    "groups": "Gamepad;GamePad",
                    "action": "Navigate",
                    "isComposite": false,
                    "isPartOfComposite": true
                },
                {
                    "name": "",
                    "id": "66f105bc-2ae6-40cc-b9d9-3b0616aebe0b",
                    "path": "<Gamepad>/dpad",
                    "interactions": "",
                    "processors": "",
                    "groups": "Gamepad;GamePad",
                    "action": "Navigate",
                    "isComposite": false,
                    "isPartOfComposite": false
                },
                {
                    "name": "Keyboard",
                    "id": "7e579813-48ee-4072-99c6-500fbf191688",
                    "path": "2DVector",
                    "interactions": "",
                    "processors": "",
                    "groups": "",
                    "action": "Navigate",
                    "isComposite": true,
                    "isPartOfComposite": false
                },
                {
                    "name": "up",
                    "id": "6ec1ee42-839f-4236-8c7e-268513995e51",
                    "path": "<Keyboard>/w",
                    "interactions": "",
                    "processors": "",
                    "groups": "Keyboard&Mouse;Keyboard & Mouse",
                    "action": "Navigate",
                    "isComposite": false,
                    "isPartOfComposite": true
                },
                {
                    "name": "up",
                    "id": "7b480ebc-5aa6-4de8-86be-31595c486b54",
                    "path": "<Keyboard>/upArrow",
                    "interactions": "",
                    "processors": "",
                    "groups": "Keyboard&Mouse;Keyboard & Mouse",
                    "action": "Navigate",
                    "isComposite": false,
                    "isPartOfComposite": true
                },
                {
                    "name": "down",
                    "id": "5f10d9fc-0ede-43b3-ad4e-f31027cb0737",
                    "path": "<Keyboard>/s",
                    "interactions": "",
                    "processors": "",
                    "groups": "Keyboard&Mouse;Keyboard & Mouse",
                    "action": "Navigate",
                    "isComposite": false,
                    "isPartOfComposite": true
                },
                {
                    "name": "down",
                    "id": "f5483b6e-17e4-49e7-be4e-cfb07a3ca26b",
                    "path": "<Keyboard>/downArrow",
                    "interactions": "",
                    "processors": "",
                    "groups": "Keyboard&Mouse;Keyboard & Mouse",
                    "action": "Navigate",
                    "isComposite": false,
                    "isPartOfComposite": true
                },
                {
                    "name": "left",
                    "id": "2252f503-317d-4f66-82bb-8fc95c5a1e68",
                    "path": "<Keyboard>/a",
                    "interactions": "",
                    "processors": "",
                    "groups": "Keyboard&Mouse;Keyboard & Mouse",
                    "action": "Navigate",
                    "isComposite": false,
                    "isPartOfComposite": true
                },
                {
                    "name": "left",
                    "id": "4c42fd71-b102-41be-bc43-1c425980cd61",
                    "path": "<Keyboard>/leftArrow",
                    "interactions": "",
                    "processors": "",
                    "groups": "Keyboard&Mouse;Keyboard & Mouse",
                    "action": "Navigate",
                    "isComposite": false,
                    "isPartOfComposite": true
                },
                {
                    "name": "right",
                    "id": "92428a2a-fb0c-462d-8e0c-93085158f47b",
                    "path": "<Keyboard>/d",
                    "interactions": "",
                    "processors": "",
                    "groups": "Keyboard&Mouse;Keyboard & Mouse",
                    "action": "Navigate",
                    "isComposite": false,
                    "isPartOfComposite": true
                },
                {
                    "name": "right",
                    "id": "daf7d8a6-2b7a-463d-88d1-a0412d75f35b",
                    "path": "<Keyboard>/rightArrow",
                    "interactions": "",
                    "processors": "",
                    "groups": "Keyboard&Mouse;Keyboard & Mouse",
                    "action": "Navigate",
                    "isComposite": false,
                    "isPartOfComposite": true
                },
                {
                    "name": "",
                    "id": "45f6c419-0d7b-4cc7-b217-b832a6268a4c",
                    "path": "<Mouse>/position",
                    "interactions": "",
                    "processors": "",
                    "groups": "Keyboard&Mouse;Keyboard & Mouse",
                    "action": "Point",
                    "isComposite": false,
                    "isPartOfComposite": false
                },
                {
                    "name": "",
                    "id": "38c3e789-e529-4ede-864b-e249230eef23",
                    "path": "<Pen>/position",
                    "interactions": "",
                    "processors": "",
                    "groups": "Keyboard&Mouse",
                    "action": "Point",
                    "isComposite": false,
                    "isPartOfComposite": false
                },
                {
                    "name": "",
                    "id": "1172e6a6-5734-4784-9336-da09fb81aae5",
                    "path": "<Touchscreen>/touch*/position",
                    "interactions": "",
                    "processors": "",
                    "groups": "Touch",
                    "action": "Point",
                    "isComposite": false,
                    "isPartOfComposite": false
                },
                {
                    "name": "",
                    "id": "7be51ced-8b18-4a78-a4ea-14b1ae44f228",
                    "path": "<Mouse>/leftButton",
                    "interactions": "",
                    "processors": "",
                    "groups": "Keyboard&Mouse;Keyboard & Mouse",
                    "action": "Click",
                    "isComposite": false,
                    "isPartOfComposite": false
                },
                {
                    "name": "",
                    "id": "a015e82c-cccf-4f21-ac1a-dc6b8176f6cf",
                    "path": "<Mouse>/scroll",
                    "interactions": "",
                    "processors": "",
                    "groups": "Keyboard&Mouse;Keyboard & Mouse",
                    "action": "ScrollWheel",
                    "isComposite": false,
                    "isPartOfComposite": false
                },
                {
                    "name": "",
                    "id": "3965442e-ae43-4f80-a65c-22ac7e68f33b",
                    "path": "<Mouse>/middleButton",
                    "interactions": "",
                    "processors": "",
                    "groups": "Keyboard&Mouse;Keyboard & Mouse",
                    "action": "MiddleClick",
                    "isComposite": false,
                    "isPartOfComposite": false
                },
                {
                    "name": "",
                    "id": "ebdf8b73-411f-4ba8-83b7-6ab84dfb6ebb",
                    "path": "<Mouse>/rightButton",
                    "interactions": "",
                    "processors": "",
                    "groups": "Keyboard&Mouse;Keyboard & Mouse",
                    "action": "RightClick",
                    "isComposite": false,
                    "isPartOfComposite": false
                },
                {
                    "name": "",
                    "id": "328742a3-131f-4330-8427-2cbdc491a78d",
                    "path": "*/{Submit}",
                    "interactions": "",
                    "processors": "",
                    "groups": "",
                    "action": "Submit",
                    "isComposite": false,
                    "isPartOfComposite": false
                },
                {
                    "name": "",
                    "id": "fcea5916-8473-408e-ab86-171292c59848",
                    "path": "*/{Cancel}",
                    "interactions": "",
                    "processors": "",
                    "groups": "",
                    "action": "Cancel",
                    "isComposite": false,
                    "isPartOfComposite": false
                },
                {
                    "name": "",
                    "id": "b36b8f96-3c0a-46d0-951a-6805c20a1290",
                    "path": "<Gamepad>/start",
                    "interactions": "",
                    "processors": "",
                    "groups": "GamePad",
                    "action": "MenuToggle",
                    "isComposite": false,
                    "isPartOfComposite": false
                },
                {
                    "name": "TurnPage",
                    "id": "44a14e04-0bfa-40ab-8886-e19e438d47a2",
                    "path": "1DAxis",
                    "interactions": "",
                    "processors": "",
                    "groups": "",
                    "action": "TurnPage",
                    "isComposite": true,
                    "isPartOfComposite": false
                },
                {
                    "name": "negative",
                    "id": "40e30df3-ffe9-45f0-af2e-d837ba3a29b8",
                    "path": "<Gamepad>/leftStick/left",
                    "interactions": "",
                    "processors": "",
                    "groups": "GamePad",
                    "action": "TurnPage",
                    "isComposite": false,
                    "isPartOfComposite": true
                },
                {
                    "name": "negative",
                    "id": "ba3b71fa-2a56-4162-a6cb-9f3b6eb4443a",
                    "path": "<Gamepad>/dpad/left",
                    "interactions": "",
                    "processors": "",
                    "groups": "GamePad",
                    "action": "TurnPage",
                    "isComposite": false,
                    "isPartOfComposite": true
                },
                {
                    "name": "negative",
                    "id": "f43a0ba7-3091-42bb-9d2f-1af4bcb7a7cb",
                    "path": "<Keyboard>/a",
                    "interactions": "",
                    "processors": "",
                    "groups": "Keyboard & Mouse",
                    "action": "TurnPage",
                    "isComposite": false,
                    "isPartOfComposite": true
                },
                {
                    "name": "positive",
                    "id": "4b08ec23-f690-4a60-91d7-c725da570ae6",
                    "path": "<Gamepad>/leftStick/right",
                    "interactions": "",
                    "processors": "",
                    "groups": "GamePad",
                    "action": "TurnPage",
                    "isComposite": false,
                    "isPartOfComposite": true
                },
                {
                    "name": "positive",
                    "id": "4af7db17-3e19-48ea-bd15-81a786cc2b0a",
                    "path": "<Gamepad>/dpad/right",
                    "interactions": "",
                    "processors": "",
                    "groups": "GamePad",
                    "action": "TurnPage",
                    "isComposite": false,
                    "isPartOfComposite": true
                },
                {
                    "name": "positive",
                    "id": "a380efe7-1de9-49c5-bb5d-8eeede812b62",
                    "path": "<Keyboard>/d",
                    "interactions": "",
                    "processors": "",
                    "groups": "Keyboard & Mouse",
                    "action": "TurnPage",
                    "isComposite": false,
                    "isPartOfComposite": true
                }
            ]
        },
        {
            "name": "PlayerSwim",
            "id": "483b5470-2e5b-4e41-b281-01c5e9c119fb",
            "actions": [
                {
                    "name": "Swim",
                    "type": "Value",
                    "id": "11c999d9-25df-41ae-bce5-33b17e1d11b3",
                    "expectedControlType": "",
                    "processors": "Scale",
                    "interactions": ""
                },
                {
                    "name": "MenuToggle",
                    "type": "Button",
                    "id": "70452fc9-9355-4a42-8e71-6641b472cfaa",
                    "expectedControlType": "Button",
                    "processors": "",
                    "interactions": ""
                }
            ],
            "bindings": [
                {
                    "name": "Direction",
                    "id": "08d5c58d-f9a7-46af-b23b-168ecb1b080e",
                    "path": "2DVector",
                    "interactions": "",
                    "processors": "",
                    "groups": "Keyboard & Mouse",
                    "action": "Swim",
                    "isComposite": true,
                    "isPartOfComposite": false
                },
                {
                    "name": "up",
                    "id": "807829ce-30d7-4ccc-aa89-ef0c51e8b148",
                    "path": "<Keyboard>/w",
                    "interactions": "",
                    "processors": "",
                    "groups": "Keyboard & Mouse",
                    "action": "Swim",
                    "isComposite": false,
                    "isPartOfComposite": true
                },
                {
                    "name": "down",
                    "id": "7b28bb94-e51b-466c-909b-cd7f5f204c90",
                    "path": "<Keyboard>/s",
                    "interactions": "",
                    "processors": "",
                    "groups": "Keyboard & Mouse",
                    "action": "Swim",
                    "isComposite": false,
                    "isPartOfComposite": true
                },
                {
                    "name": "left",
                    "id": "acbb3364-bf87-4fa7-95d4-0e1462788d25",
                    "path": "<Keyboard>/a",
                    "interactions": "",
                    "processors": "",
                    "groups": "Keyboard & Mouse",
                    "action": "Swim",
                    "isComposite": false,
                    "isPartOfComposite": true
                },
                {
                    "name": "right",
                    "id": "3db04980-9b9a-4189-be0c-5a870c4dc256",
                    "path": "<Keyboard>/d",
                    "interactions": "",
                    "processors": "",
                    "groups": "Keyboard & Mouse",
                    "action": "Swim",
                    "isComposite": false,
                    "isPartOfComposite": true
                },
                {
                    "name": "",
                    "id": "bf786ec2-917f-4dfe-b8bc-6333d6f10664",
                    "path": "<Keyboard>/escape",
                    "interactions": "",
                    "processors": "",
                    "groups": "Keyboard & Mouse",
                    "action": "MenuToggle",
                    "isComposite": false,
                    "isPartOfComposite": false
                },
                {
                    "name": "",
                    "id": "f59fee90-6b4f-4d1f-904e-d1cac4a779fe",
                    "path": "<Gamepad>/start",
                    "interactions": "",
                    "processors": "",
                    "groups": "GamePad",
                    "action": "MenuToggle",
                    "isComposite": false,
                    "isPartOfComposite": false
                }
            ]
        },
        {
            "name": "Cinematic",
            "id": "c5c66100-db40-4421-a5cc-ea1bef5bb343",
            "actions": [],
            "bindings": []
        }
    ],
    "controlSchemes": [
        {
            "name": "Keyboard & Mouse",
            "bindingGroup": "Keyboard & Mouse",
            "devices": [
                {
                    "devicePath": "<Keyboard>",
                    "isOptional": false,
                    "isOR": false
                },
                {
                    "devicePath": "<Mouse>",
                    "isOptional": false,
                    "isOR": false
                }
            ]
        },
        {
            "name": "GamePad",
            "bindingGroup": "GamePad",
            "devices": [
                {
                    "devicePath": "<Gamepad>",
                    "isOptional": true,
                    "isOR": false
                }
            ]
        }
    ]
}