%YAML 1.1
%TAG !u! tag:unity3d.com,2011:
--- !u!1045 &1
EditorBuildSettings:
  m_ObjectHideFlags: 0
  serializedVersion: 2
  m_Scenes:
  - enabled: 1
    path: Assets/Scenes/TitleScreen.unity
    guid: 5438ddb22e778a94d865f5b37abf52e6
  - enabled: 1
    path: Assets/Scenes/Gym.unity
    guid: c18b9e20dea977f41a0909ee59f8da23
  - enabled: 1
    path: Assets/Scenes/Gym2.unity
    guid: 25a9cbe5c093664439f14a5a9322d8ce
  - enabled: 1
    path: Assets/Scenes/Player.unity
    guid: a3468e846cb69004b8aaf757452125d2
  m_configObjects: {}
