%YAML 1.1
%TAG !u! tag:unity3d.com,2011:
--- !u!114 &11400000
MonoBehaviour:
  m_ObjectHideFlags: 0
  m_CorrespondingSourceObject: {fileID: 0}
  m_PrefabInstance: {fileID: 0}
  m_PrefabAsset: {fileID: 0}
  m_GameObject: {fileID: 0}
  m_Enabled: 1
  m_EditorHideFlags: 0
  m_Script: {fileID: 11500000, guid: 3acc85dc2244dfc48852713c16759475, type: 3}
  m_Name: Wind
  m_EditorClassIdentifier: 
  m_elementColor: {r: 0.6666667, g: 1, b: 0.95488095, a: 1}
  m_elementIcon: {fileID: 0}
